product_code,additional_bond,trv_bond
CH_SC_OSO_500MB_ADDICIONAL,01t4I0000079CM9QAM,01t4I0000079CLoQAM
CH_SC_OSO_1GB_ADDICIONAL,01t4I0000079CLLQA2,01t4I0000079CM5QAM
CH_SC_OSO_3GB_ADDICIONAL,01t4I000006bWZ2QAM,01t4I0000079CMsQAM
CH_SC_OSO_5GB_ADDICIONAL,01t4I00004jzSn0QAE,01t4I0000079CLKQA2
CH_SC_OSO_10GB_ADDICIONAL,01t4I00004kYBIRQA4,01t4I0000079CLdQAM
